[
	{
		"courseid": 1,
		"name": "Lorem Ipsum Specialization",
		"description":  "A course into Lorem Ipsum. Viderer suscipit comprehensam eu vis, vix ei oblique persius nominavi, eos te perpetua intellegam. Sit fastidii elaboraret consectetuer ne, nobis noluisse lucilius in ius. Ea scripta dissentias ius, ne scripta facilis sit. His alii numquam insolens in, ne autem minimum vituperatoribus vim. Ne mei unum case inani, cu natum saepe mei, prima posidonium liberavisse no duo. Sea cu dolor dolore evertitur, cu inimicus molestiae adolescens mei.",
		"tags": ["bioinformatics", "genome", "dna"],
		"status": "active",
		"readings": ["genome.com", "dna.com"],
		"challenges": [1,2,3,4,5,6,7]
	},
	{
		"courseid": 2,
		"name": "intro to python",
		"description":  "An introduction to python",
		"tags": ["python", "scripting", "introduction"],
		"status": "active",
		"readings": ["programming.com", "python.com"],
		"challenges": [1,2]
	},
	{
		"courseid": 3,
		"name": "bioinformatics",
		"description":  "A course in bioinformatics",
		"tags": ["bioinformatics", "genome", "dna"],
		"status": "active",
		"readings": ["genome.com", "dna.com"],
		"challenges": [3,4,5]
	},
	{
		"courseid": 4,
		"name": "intro to python",
		"description":  "An introduction to python",
		"tags": ["python", "scripting", "introduction"],
		"status": "active",
		"readings": ["programming.com", "python.com"],
		"challenges": [1,2,7]
	},
	{
		"courseid": 5,
		"name": "bioinformatics",
		"description":  "A course in bioinformatics",
		"tags": ["bioinformatics", "genome", "dna"],
		"status": "active",
		"readings": ["genome.com", "dna.com"],
		"challenges": [5,6]
	},
	{
		"courseid": 6,
		"name": "intro to python",
		"description":  "An introduction to python",
		"tags": ["python", "scripting", "introduction"],
		"status": "active",
		"readings": ["programming.com", "python.com"],
		"challenges": [7]
	}
]